asn1crypto==0.24.0
cffi==1.11.5
cryptography==2.3.1
Django==2.1.2
django-jalali-date==0.2.9
idna==2.7
jdatetime==3.0.2
mysqlclient==1.3.13
Pillow==5.3.0
pycparser==2.19
PyMySQL==0.9.2
pytz==2018.5
six==1.11.0
