<?xml version="1.0" encoding="UTF-8"?>
<!DOCTYPE svg PUBLIC "-//W3C//DTD SVG 1.1//EN" "http://www.w3.org/Graphics/SVG/1.1/DTD/svg11.dtd">
<!-- Creator: CorelDRAW 2017 -->
<svg xmlns="http://www.w3.org/2000/svg" xml:space="preserve" width="581px" height="300px" version="1.1" style="shape-rendering:geometricPrecision; text-rendering:geometricPrecision; image-rendering:optimizeQuality; fill-rule:evenodd; clip-rule:evenodd"
viewBox="0 0 98.408 50.804"
 xmlns:xlink="http://www.w3.org/1999/xlink">
 <defs>
  <style type="text/css">
   <![CDATA[
    .fil3 {fill:url(#id0);fill-rule:nonzero}
    .fil16 {fill:url(#id1);fill-rule:nonzero}
    .fil19 {fill:url(#id2);fill-rule:nonzero}
    .fil13 {fill:url(#id3);fill-rule:nonzero}
    .fil10 {fill:url(#id4);fill-rule:nonzero}
    .fil15 {fill:url(#id5);fill-rule:nonzero}
    .fil8 {fill:url(#id6);fill-rule:nonzero}
    .fil2 {fill:url(#id7);fill-rule:nonzero}
    .fil12 {fill:url(#id8);fill-rule:nonzero}
    .fil11 {fill:url(#id9);fill-rule:nonzero}
    .fil5 {fill:url(#id10);fill-rule:nonzero}
    .fil14 {fill:url(#id11);fill-rule:nonzero}
    .fil7 {fill:url(#id12);fill-rule:nonzero}
    .fil9 {fill:url(#id13);fill-rule:nonzero}
    .fil17 {fill:url(#id14);fill-rule:nonzero}
    .fil0 {fill:url(#id15);fill-rule:nonzero}
    .fil1 {fill:url(#id16);fill-rule:nonzero}
    .fil6 {fill:url(#id17);fill-rule:nonzero}
    .fil4 {fill:url(#id18);fill-rule:nonzero}
    .fil18 {fill:url(#id19);fill-rule:nonzero}
   ]]>
  </style>
  <linearGradient id="id0" gradientUnits="userSpaceOnUse" x1="19.609" y1="45.983" x2="8.856" y2="40.171">
   <stop offset="0" style="stop-opacity:1; stop-color:#3873B8"/>
   <stop offset="1" style="stop-opacity:1; stop-color:#46A3DA"/>
  </linearGradient>
  <linearGradient id="id1" gradientUnits="userSpaceOnUse" x1="93.829" y1="41.556" x2="90.785" y2="39.111">
   <stop offset="0" style="stop-opacity:1; stop-color:#F9A537"/>
   <stop offset="1" style="stop-opacity:1; stop-color:#FADD3B"/>
  </linearGradient>
  <linearGradient id="id2" gradientUnits="userSpaceOnUse" x1="63.559" y1="46.636" x2="64.321" y2="47.626">
   <stop offset="0" style="stop-opacity:1; stop-color:#53CAF5"/>
   <stop offset="1" style="stop-opacity:1; stop-color:#73CDDB"/>
  </linearGradient>
  <linearGradient id="id3" gradientUnits="userSpaceOnUse" xlink:href="#id2" x1="53.28" y1="5.358" x2="54.043" y2="6.348">
  </linearGradient>
  <linearGradient id="id4" gradientUnits="userSpaceOnUse" xlink:href="#id1" x1="23.574" y1="47.767" x2="19.011" y2="44.101">
  </linearGradient>
  <linearGradient id="id5" gradientUnits="userSpaceOnUse" xlink:href="#id0" x1="10.838" y1="42.749" x2="6.377" y2="39.164">
  </linearGradient>
  <linearGradient id="id6" gradientUnits="userSpaceOnUse" x1="87.854" y1="50.405" x2="59.276" y2="46.441">
   <stop offset="0" style="stop-opacity:1; stop-color:#F06380"/>
   <stop offset="1" style="stop-opacity:1; stop-color:#EA9A4F"/>
  </linearGradient>
  <linearGradient id="id7" gradientUnits="userSpaceOnUse" xlink:href="#id0" x1="18.536" y1="49.536" x2="7.902" y2="40.993">
  </linearGradient>
  <linearGradient id="id8" gradientUnits="userSpaceOnUse" xlink:href="#id2" x1="57.164" y1="8.545" x2="59.604" y2="11.712">
  </linearGradient>
  <linearGradient id="id9" gradientUnits="userSpaceOnUse" xlink:href="#id1" x1="11.271" y1="20.333" x2="1.887" y2="12.795">
  </linearGradient>
  <linearGradient id="id10" gradientUnits="userSpaceOnUse" xlink:href="#id6" x1="88.219" y1="24.694" x2="80.368" y2="13.638">
  </linearGradient>
  <linearGradient id="id11" gradientUnits="userSpaceOnUse" xlink:href="#id2" x1="22.987" y1="42.055" x2="24.97" y2="44.628">
  </linearGradient>
  <linearGradient id="id12" gradientUnits="userSpaceOnUse" xlink:href="#id2" x1="9.665" y1="12.095" x2="11.786" y2="14.848">
  </linearGradient>
  <linearGradient id="id13" gradientUnits="userSpaceOnUse" xlink:href="#id1" x1="68.356" y1="13.237" x2="60.627" y2="7.028">
  </linearGradient>
  <linearGradient id="id14" gradientUnits="userSpaceOnUse" xlink:href="#id2" x1="93.764" y1="48.613" x2="96.479" y2="52.137">
  </linearGradient>
  <linearGradient id="id15" gradientUnits="userSpaceOnUse" x1="24.167" y1="-2.66" x2="78.568" y2="55.805">
   <stop offset="0" style="stop-opacity:1; stop-color:#FE9A8B"/>
   <stop offset="1" style="stop-opacity:1; stop-color:#D0398A"/>
  </linearGradient>
  <linearGradient id="id16" gradientUnits="userSpaceOnUse" xlink:href="#id6" x1="94.865" y1="24.609" x2="78.78" y2="7.72">
  </linearGradient>
  <linearGradient id="id17" gradientUnits="userSpaceOnUse" xlink:href="#id2" x1="5.888" y1="0.518" x2="16.283" y2="14.009">
  </linearGradient>
  <linearGradient id="id18" gradientUnits="userSpaceOnUse" xlink:href="#id1" x1="75.327" y1="17.155" x2="48.951" y2="-4.034">
  </linearGradient>
  <linearGradient id="id19" gradientUnits="userSpaceOnUse" xlink:href="#id1" x1="86.154" y1="50.323" x2="76.77" y2="42.784">
  </linearGradient>
 </defs>
 <g id="Layer_x0020_1">
  <metadata id="CorelCorpID_0Corel-Layer"/>
  <g id="_2214865899440">
   <polygon class="fil0" points="0,50.804 98.408,50.804 98.408,0 0,0 "/>
   <path class="fil1" d="M98.408 21.985c-3.598,6.922 -14.171,3.409 -13.144,-4.7 0.967,-7.644 -2.541,-11.471 -9.571,-9.851 -7.414,1.709 -7.6,-5.181 -5.938,-7.434 4.323,0 28.653,0 28.653,0l0 21.985z"/>
   <path class="fil2" d="M18.309 50.804c1.179,-4.805 -3.028,-7.022 -7.5,-6.851 -8.425,0.321 -3.765,-10.209 -10.809,-10.597 0,4.99 0,17.448 0,17.448l18.309 0z"/>
   <path class="fil3" d="M12.757 41.243c2.599,0.491 2.51,2.049 -0.414,1.794 -2.925,-0.255 -2.876,-2.415 0.414,-1.794z"/>
   <path class="fil4" d="M63.713 0c-0.038,6.548 -3.942,6.709 -6.913,5.2 -2.971,-1.509 -5.122,-5.2 -5.122,-5.2l12.035 0z"/>
   <path class="fil5" d="M84.275 16.427c-0.356,3.205 -2.597,5.231 -2.626,1.357 -0.029,-3.874 2.899,-3.824 2.626,-1.357z"/>
   <path class="fil6" d="M18.614 0c2.338,8.912 -4.429,12.444 -9.155,9.527 -6.396,-3.946 -7.962,-0.492 -9.459,-1.107 0,-2.708 0,-8.42 0,-8.42l18.614 0z"/>
   <path class="fil7" d="M8.999 13.063c0,0.821 0.632,1.487 1.412,1.487 0.78,0 1.413,-0.666 1.413,-1.487 0,-0.821 -0.633,-1.486 -1.413,-1.486 -0.78,0 -1.412,0.665 -1.412,1.486z"/>
   <path class="fil8" d="M65.109 50.804c5.193,-4.685 8.592,-4.685 12.858,-2.603 4.265,2.082 5.903,-1.724 10.014,2.603 -4.204,0 -22.872,0 -22.872,0z"/>
   <path class="fil9" d="M61.853 9.087c0,0.777 0.598,1.407 1.337,1.407 0.738,0 1.337,-0.63 1.337,-1.407 0,-0.777 -0.599,-1.407 -1.337,-1.407 -0.739,0 -1.337,0.63 -1.337,1.407z"/>
   <path class="fil10" d="M19.734 45.317c0,0.459 0.354,0.831 0.79,0.831 0.436,0 0.789,-0.372 0.789,-0.831 0,-0.459 -0.353,-0.831 -0.789,-0.831 -0.436,0 -0.79,0.372 -0.79,0.831z"/>
   <path class="fil11" d="M3.375 15.294c0,0.943 0.727,1.708 1.624,1.708 0.896,0 1.623,-0.765 1.623,-1.708 0,-0.944 -0.727,-1.709 -1.623,-1.709 -0.897,0 -1.624,0.765 -1.624,1.709z"/>
   <path class="fil12" d="M56.398 9.659c0,0.945 0.727,1.71 1.625,1.71 0.897,0 1.625,-0.765 1.625,-1.71 0,-0.944 -0.728,-1.71 -1.625,-1.71 -0.898,0 -1.625,0.766 -1.625,1.71z"/>
   <path class="fil13" d="M53.041 5.707c0,0.295 0.227,0.534 0.507,0.534 0.281,0 0.508,-0.239 0.508,-0.534 0,-0.296 -0.227,-0.535 -0.508,-0.535 -0.28,0 -0.507,0.239 -0.507,0.535z"/>
   <path class="fil14" d="M22.364 42.961c0,0.767 0.591,1.389 1.32,1.389 0.73,0 1.321,-0.622 1.321,-1.389 0,-0.768 -0.591,-1.39 -1.321,-1.39 -0.729,0 -1.32,0.622 -1.32,1.39z"/>
   <path class="fil15" d="M7.084 40.353c0,0.448 0.346,0.812 0.772,0.812 0.426,0 0.772,-0.364 0.772,-0.812 0,-0.449 -0.346,-0.813 -0.772,-0.813 -0.426,0 -0.772,0.364 -0.772,0.813z"/>
   <path class="fil16" d="M91.268 39.922c0,0.306 0.235,0.554 0.526,0.554 0.291,0 0.527,-0.248 0.527,-0.554 0,-0.307 -0.236,-0.555 -0.527,-0.555 -0.291,0 -0.526,0.248 -0.526,0.555z"/>
   <path class="fil17" d="M97.764 50.804c-1.439,-2.34 -4.341,-2.724 -6.089,0 2.419,0 6.089,0 6.089,0z"/>
   <path class="fil18" d="M78.258 45.283c0,0.944 0.727,1.709 1.623,1.709 0.897,0 1.623,-0.765 1.623,-1.709 0,-0.943 -0.726,-1.708 -1.623,-1.708 -0.896,0 -1.623,0.765 -1.623,1.708z"/>
   <path class="fil19" d="M63.319 46.984c0,0.295 0.228,0.535 0.508,0.535 0.281,0 0.508,-0.24 0.508,-0.535 0,-0.295 -0.227,-0.534 -0.508,-0.534 -0.28,0 -0.508,0.239 -0.508,0.534z"/>
  </g>
 </g>
</svg>
